{
  "DAI": { "address": "0xfFb64fE73726d39046846A5193f474aFdCdEE8bB", "isProxy": true },
  "balancer": {
    "corePoolFactory": {
      "address": "0x8f7F78080219d4066A8036ccD30D588B416a40DB",
      "isProxy": false
    },
    "smartPoolFactory": {
      "address": "0x53265f0e014995363AE54DAd7059c018BaDbcD74",
      "isProxy": false
    }
  },
  "VestingReserve": {
    "address": "0x8f7F78080219d4066A8036ccD30D588B416a40DB",
    "isProxy": false,
    "startTime": 0,
    "endTime": 0,
    "editAddressUntil": 0
  },
  "StakedETHIX": {
    "address": "0xb3F3A05246CB85682dcc3476D7c185d179C2586E",
    "isProxy": true,
    "ethixGovernanceAddress": "0x88A013548Dc83996FE7C75562d08ac4e518c1897",
    "coolDownSeconds": 180,
    "unstakeWindow": 180,
    "emissionManagerAddress": "0x4e172534a545d9a64c185b8a3c1b831262729694",
    "distributionDuration": 1314000000,
    "emissionPerSecond": "11574074074074074",
    "totalStaked": 0,
    "emissionsPerDay": "100"
  },
  "StakedBETHIXDAI": {
    "address": "0x5Cfc00241186B2f1D20923b740950D72721a3a5d",
    "isProxy": true,
    "ethixGovernanceAddress": "0x88A013548Dc83996FE7C75562d08ac4e518c1897",
    "coolDownSeconds": 180,
    "unstakeWindow": 180,
    "emissionManagerAddress": "0x4e172534a545d9a64c185b8a3c1b831262729694",
    "distributionDuration": 1314000000,
    "emissionPerSecond": "11574074074074074"
  },
  "EthixToken": { "address": "0x960425CFf69262f745dD2E95fc8c2F041ebb9Fc3", "isProxy": true },
  "ConfigurableRightsPool": {
    "address": "0x955c3C1f8a4adB92C590DA1ADfAB5aF59B7a48B0",
    "isProxy": false
  },
  "BalancerCompensationPool": {
    "address": "0x93813a9ca95CCC8bF3688045067114Ef918A4BC1",
    "isProxy": false
  },
  "UniswapEthixEthPool": {
    "address": "0xffed13dabde2fcb3070fb95c7cea8593cdf1a011",
    "isProxy": false
  },
  "CompensationReserve": { "address": "0x8660E694E11916AAFF529Ed82c6311af4a63490c" },
  "CompensationSystemManager": { "address": "0x30388B42946dA8c9A42C929CAA2f7506F3F94ECE", "isProxy": true },
  "RewardsReserve": { "address": "0x4d41426C07D29B61a9a543D88D4920Fd4fB7177f" },
  "PresaleBountiesVestingReserve": { "address": "0x5b98B06BE69AF7AD428e0AFCfE5EA241DDE8EE8E" },
  "FirstOriginatorReserve": { "address": "0x79A33186757f3165335AB161f83451926FBcE408" },
  "IncentiveVestingReserve1": { "address": "0x921A9c21481F0Fd469ad1ED5A81CEA1092645Ae8" },
  "TeamVestingReserve": { "address": "0x1561Ded9DDA67039F94c1E8877Bab12F09539f7C" },
  "StakedUETHIXETH": {
    "address": "0x063Fd7EB10222977067852B1b83ab34005dA0fA9",
    "isProxy": true,
    "ethixGovernanceAddress": "0x88A013548Dc83996FE7C75562d08ac4e518c1897",
    "coolDownSeconds": 180,
    "unstakeWindow": 180,
    "emissionManagerAddress": "0x4e172534a545d9a64c185b8a3c1b831262729694",
    "distributionDuration": 1314000000,
    "emissionPerSecond": "23148148148148148"
  },
  "stkUmCoffee": {
    "address": "0x8919050fa39aEd9b5813e170d3e3Df361C7B33A1",
    "isProxy": true,
    "governanceAddress": "0x88A013548Dc83996FE7C75562d08ac4e518c1897",
    "emissionManagerAddress": "0x4e172534a545d9a64c185b8a3c1b831262729694",
    "distributionDuration": "31536000",
    "emissionsPerDay": "1",
    "auditorAddress": "0x2f80d1b0C9fb63216eB0b4207cE498DFaDd05424",
    "originatorAddress": "0x63dCeF5Dc11a5fb6cF63983a1f422E232C6ed66e",
    "auditorPercentage": "2000",
    "originatorPercentage": "2000",
    "stakingGoal": "100000000000000000000",
    "defaultDelay": "86400"
  },
  "stkDICAFE": {
    "address": "0x84ed4c0dD687C4332b2493e3f3Df664E72Cdd265",
    "isProxy": true,
    "emissionManagerAddress": "0x4e172534a545d9a64c185b8a3c1b831262729694",
    "distributionDuration": "31536218",
    "auditorPercentage": "2000",
    "originatorPercentage": "2000",
    "stakingGoal": "25000000000000000000000",
    "defaultDelay": "86400",
    "auditorAddress": "0xDcFE19728b011a9EF79aDE0c16995697485c7686",
    "originatorAddress": "0x4e172534a545d9A64c185B8A3c1B831262729694",
    "governanceAddress": "0xDcFE19728b011a9EF79aDE0c16995697485c7686",
    "emissionsPerDay": "60"
  },
  "OriginatorStaking": {
    "address": "0x84ed4c0dD687C4332b2493e3f3Df664E72Cdd265",
    "isProxy": true,
    "governanceAddress": "0x88A013548Dc83996FE7C75562d08ac4e518c1897",
    "emissionManagerAddress": "0x4e172534a545d9a64c185b8a3c1b831262729694",
    "distributionDuration": 31536000,
    "emissionsPerDay": "1",
    "auditorAddress": "0x2f80d1b0C9fb63216eB0b4207cE498DFaDd05424",
    "originatorAddress": "0x63dCeF5Dc11a5fb6cF63983a1f422E232C6ed66e",
    "auditorPercentage": "2000",
    "originatorPercentage": "2000",
    "stakingGoal": "100000000000000000000",
    "defaultDelay": "86400"
  }
}