{
  "DAI": { "address": "0xfFb64fE73726d39046846A5193f474aFdCdEE8bB", "isProxy": true },
  "balancer": { "corePoolFactory": {}, "smartPoolFactory": {} },
  "VestingReserve": {},
  "StakedETHIX": {
    "address": null,
    "isProxy": true,
    "coolDownSeconds": 180,
    "unstakeWindow": 180,
    "distributionDuration": 1314000000,
    "emissionsPerSecond": 11574074074074074,
    "totalStaked": 0
  },
  "StakedBETHIXDAI": {
    "address": null,
    "isProxy": true,
    "coolDownSeconds": 180,
    "unstakeWindow": 180,
    "distributionDuration": 1314000000,
    "emissionsPerSecond": "11574074074074074"
  },
  "EthixToken": { "address": "0x03dB33E18233607B1E531e5D42E3fFeC71E82771", "isProxy": true },
  "RewardsReserve": { "address": "0x960425CFf69262f745dD2E95fc8c2F041ebb9Fc3" }
}